[
   {
      "page":2,
      "per_page":6,
      "total":12,
      "total_pages":2,
      "data":[
         {
            "id":7,
            "email":"michael.lawson@reqres.in",
            "first_name":"Michael",
            "last_name":"Lawson",
            "avatar":"https://s3.amazonaws.com/uifaces/faces/twitter/follettkyle/128.jpg"
         
},
         {
            "id":8,
            "email":"lindsay.ferguson@reqres.in",
            "first_name":"Lindsay",
            "last_name":"Ferguson",
            "avatar":"https://s3.amazonaws.com/uifaces/faces/twitter/araa3185/128.jpg"
         
},
         {
            "id":9,
            "email":"tobias.funke@reqres.in",
            "first_name":"Tobias",
            "last_name":"Funke",
            "avatar":"https://s3.amazonaws.com/uifaces/faces/twitter/vivekprvr/128.jpg"
         
},
         {
            "id":10,
            "email":"byron.fields@reqres.in",
            "first_name":"Byron",
            "last_name":"Fields",
            "avatar":"https://s3.amazonaws.com/uifaces/faces/twitter/russoedu/128.jpg"
         
},
         {
            "id":11,
            "email":"george.edwards@reqres.in",
            "first_name":"George",
            "last_name":"Edwards",
            "avatar":"https://s3.amazonaws.com/uifaces/faces/twitter/mrmoiree/128.jpg"
         
},
         {
            "id":12,
            "email":"rachel.howell@reqres.in",
            "first_name":"Rachel",
            "last_name":"Howell",
            "avatar":"https://s3.amazonaws.com/uifaces/faces/twitter/hebertialmeida/128.jpg"
         
}
      
],
      "ad":{
         "company":"StatusCode Weekly",
         "url":"http://statuscode.org/",
         "text":"A weekly newsletter focusing on software development, infrastructure, the server, performance, and the stack end of things."
      
}
   
},
   {
      "data":{
         "id":2,
         "email":"janet.weaver@reqres.in",
         "first_name":"Janet",
         "last_name":"Weaver",
         "avatar":"https://s3.amazonaws.com/uifaces/faces/twitter/josephstein/128.jpg"
      
},
      "ad":{
         "company":"StatusCode Weekly",
         "url":"http://statuscode.org/",
         "text":"A weekly newsletter focusing on software development, infrastructure, the server, performance, and the stack end of things."
      
}
   
},
   {

   
},
   {
      "page":1,
      "per_page":6,
      "total":12,
      "total_pages":2,
      "data":[
         {
            "id":1,
            "name":"cerulean",
            "year":2000,
            "color":"#98B2D1",
            "pantone_value":"15-4020"
         
},
         {
            "id":2,
            "name":"fuchsia rose",
            "year":2001,
            "color":"#C74375",
            "pantone_value":"17-2031"
         
},
         {
            "id":3,
            "name":"true red",
            "year":2002,
            "color":"#BF1932",
            "pantone_value":"19-1664"
         
},
         {
            "id":4,
            "name":"aqua sky",
            "year":2003,
            "color":"#7BC4C4",
            "pantone_value":"14-4811"
         
},
         {
            "id":5,
            "name":"tigerlily",
            "year":2004,
            "color":"#E2583E",
            "pantone_value":"17-1456"
         
},
         {
            "id":6,
            "name":"blue turquoise",
            "year":2005,
            "color":"#53B0AE",
            "pantone_value":"15-5217"
         
}
      
],
      "ad":{
         "company":"StatusCode Weekly",
         "url":"http://statuscode.org/",
         "text":"A weekly newsletter focusing on software development, infrastructure, the server, performance, and the stack end of things."
      
}
   
},
   {
      "data":{
         "id":2,
         "name":"fuchsia rose",
         "year":2001,
         "color":"#C74375",
         "pantone_value":"17-2031"
      
},
      "ad":{
         "company":"StatusCode Weekly",
         "url":"http://statuscode.org/",
         "text":"A weekly newsletter focusing on software development, infrastructure, the server, performance, and the stack end of things."
      
}
   
},
   {

   
}
]
